…
``` r
#Creating a new categorical variable to describe concave_points_mean level, ordered from "very low" to "very high"
task1.2_q2 <- cancer_sample %>%
  select(ID, diagnosis, concave_points_mean) %>%
  mutate(concave_points_level = factor(case_when(concave_points_mean < 0.02 ~ "very low",
                                                 concave_points_mean < 0.04 ~ "low",
                                                 concave_points_mean < 0.06 ~ "moderate",
                                                 concave_points_mean < 0.08 ~ "high",
                                                 concave_points_mean >= 0.08 ~ "very high"),
                                       levels = c("very low", "low", "moderate", "high", "very high")))
print(task1.2_q2)
```

    ## # A tibble: 569 × 4
    ##          ID diagnosis concave_points_mean concave_points_level
    ##       <dbl> <chr>                   <dbl> <fct>               
    ##  1   842302 M                      0.147  very high           
    ##  2   842517 M                      0.0702 high                
    ##  3 84300903 M                      0.128  very high           
    ##  4 84348301 M                      0.105  very high           
    ##  5 84358402 M                      0.104  very high           
    ##  6   843786 M                      0.0809 very high           
    ##  7   844359 M                      0.074  high                
    ##  8 84458202 M                      0.0598 moderate            
    ##  9   844981 M                      0.0935 very high           
    ## 10 84501001 M                      0.0854 very high           
    ## # ℹ 559 more rows
…
``` r
#Identifying outliers in concave_points_mean when grouped by diagnosis
task1.2_q3_cpoints_outliers <- cancer_sample %>%
  select(ID, diagnosis, concave_points_mean) %>%
  group_by(diagnosis) %>%
  identify_outliers(concave_points_mean)

print(task1.2_q3_cpoints_outliers)
```

    ## # A tibble: 24 × 5
    ##    diagnosis       ID concave_points_mean is.outlier is.extreme
    ##    <chr>        <dbl>               <dbl> <lgl>      <lgl>     
    ##  1 B          8610629              0.0656 TRUE       FALSE     
    ##  2 B          8611161              0.0699 TRUE       FALSE     
    ##  3 B           861598              0.0706 TRUE       FALSE     
    ##  4 B            86408              0.0602 TRUE       FALSE     
    ##  5 B            86409              0.0780 TRUE       FALSE     
    ##  6 B           866458              0.0853 TRUE       TRUE      
    ##  7 B           867387              0.0593 TRUE       FALSE     
    ##  8 B          8710441              0.0786 TRUE       FALSE     
    ##  9 B          8911164              0.0740 TRUE       FALSE     
    ## 10 B         89143602              0.0660 TRUE       FALSE     
    ## # ℹ 14 more rows

``` r
#Adding the relevant outlier data to the relevant columns of the cancer_sample data set 
task1.2_q3_cpoints_summary <- task1.2_q3_cpoints_outliers %>%
  right_join(cancer_sample, by = c("ID", "diagnosis", "concave_points_mean")) %>%
  select(c(diagnosis:is.outlier), concave_points_se)
print(task1.2_q3_cpoints_summary)
```

    ## # A tibble: 569 × 5
    ##    diagnosis       ID concave_points_mean is.outlier concave_points_se
    ##    <chr>        <dbl>               <dbl> <lgl>                  <dbl>
    ##  1 B          8610629              0.0656 TRUE                 0.00824
    ##  2 B          8611161              0.0699 TRUE                 0.0138 
    ##  3 B           861598              0.0706 TRUE                 0.0162 
    ##  4 B            86408              0.0602 TRUE                 0.0230 
    ##  5 B            86409              0.0780 TRUE                 0.0229 
    ##  6 B           866458              0.0853 TRUE                 0.0226 
    ##  7 B           867387              0.0593 TRUE                 0.0127 
    ##  8 B          8710441              0.0786 TRUE                 0.0528 
    ##  9 B          8911164              0.0740 TRUE                 0.0191 
    ## 10 B         89143602              0.0660 TRUE                 0.0277 
    ## # ℹ 559 more rows
…
This version of the data set now agrees with the definition of tidy.
Each row is an observation, each column a variable and each cell is a
value.

``` r
task2.2_tidy <- cancer_sample %>%
  rename_with(~sub("_(.*?_)", ".\\1", .x)) %>%
  pivot_longer(cols = !c(ID, diagnosis),
             names_to = c('attribute', '.value'),
             names_sep = "_")

print(task2.2_tidy)
```

    ## # A tibble: 5,690 × 6
    ##        ID diagnosis attribute              mean        se    worst
    ##     <dbl> <chr>     <chr>                 <dbl>     <dbl>    <dbl>
    ##  1 842302 M         radius              18.0      1.10      25.4  
    ##  2 842302 M         texture             10.4      0.905     17.3  
    ##  3 842302 M         perimeter          123.       8.59     185.   
    ##  4 842302 M         area              1001      153.      2019    
    ##  5 842302 M         smoothness           0.118    0.00640    0.162
    ##  6 842302 M         compactness          0.278    0.0490     0.666
    ##  7 842302 M         concavity            0.300    0.0537     0.712
    ##  8 842302 M         concave.points       0.147    0.0159     0.265
    ##  9 842302 M         symmetry             0.242    0.0300     0.460
    ## 10 842302 M         fractal.dimension    0.0787   0.00619    0.119
    ## # ℹ 5,680 more rows
…
``` r
task2.2_untidy <- task2.2_tidy %>%
  pivot_wider(names_from = attribute,
              values_from = c(mean:worst),
              names_glue = "{attribute}_{.value}") %>%
  rename_with(~sub("\\.","_", .x))

print(task2.2_untidy)
```

    ## # A tibble: 569 × 32
    ##          ID diagnosis radius_mean texture_mean perimeter_mean area_mean
    ##       <dbl> <chr>           <dbl>        <dbl>          <dbl>     <dbl>
    ##  1   842302 M                18.0         10.4          123.      1001 
    ##  2   842517 M                20.6         17.8          133.      1326 
    ##  3 84300903 M                19.7         21.2          130       1203 
    ##  4 84348301 M                11.4         20.4           77.6      386.
    ##  5 84358402 M                20.3         14.3          135.      1297 
    ##  6   843786 M                12.4         15.7           82.6      477.
    ##  7   844359 M                18.2         20.0          120.      1040 
    ##  8 84458202 M                13.7         20.8           90.2      578.
    ##  9   844981 M                13           21.8           87.5      520.
    ## 10 84501001 M                12.5         24.0           84.0      476.
    ## # ℹ 559 more rows
    ## # ℹ 26 more variables: smoothness_mean <dbl>, compactness_mean <dbl>,
    ## #   concavity_mean <dbl>, concave_points_mean <dbl>, symmetry_mean <dbl>,
    ## #   fractal_dimension_mean <dbl>, radius_se <dbl>, texture_se <dbl>,
    ## #   perimeter_se <dbl>, area_se <dbl>, smoothness_se <dbl>,
    ## #   compactness_se <dbl>, concavity_se <dbl>, concave_points_se <dbl>,
    ## #   symmetry_se <dbl>, fractal_dimension_se <dbl>, radius_worst <dbl>, …
…
``` r
task2.3_q1 <- cancer_sample %>%
  select(ID:fractal_dimension_mean) %>%
  rename(concave.points_mean = concave_points_mean,
         fractal.dimension_mean = fractal_dimension_mean) %>%
  pivot_longer(cols = !c(ID, diagnosis),
               names_to = c("attribute", ".value"),
               names_sep = "_") %>%
  group_by(attribute, diagnosis)

print(task2.3_q1)
```

    ## # A tibble: 5,690 × 4
    ## # Groups:   attribute, diagnosis [20]
    ##        ID diagnosis attribute              mean
    ##     <dbl> <chr>     <chr>                 <dbl>
    ##  1 842302 M         radius              18.0   
    ##  2 842302 M         texture             10.4   
    ##  3 842302 M         perimeter          123.    
    ##  4 842302 M         area              1001     
    ##  5 842302 M         smoothness           0.118 
    ##  6 842302 M         compactness          0.278 
    ##  7 842302 M         concavity            0.300 
    ##  8 842302 M         concave.points       0.147 
    ##  9 842302 M         symmetry             0.242 
    ## 10 842302 M         fractal.dimension    0.0787
    ## # ℹ 5,680 more rows
…
print(task2.3_q2)
```

    ## # A tibble: 5,690 × 3
    ## # Groups:   attribute [10]
    ##    attribute              mean        se
    ##    <chr>                 <dbl>     <dbl>
    ##  1 radius              18.0      1.10   
    ##  2 texture             10.4      0.905  
    ##  3 perimeter          123.       8.59   
    ##  4 area              1001      153.     
    ##  5 smoothness           0.118    0.00640
    ##  6 compactness          0.278    0.0490 
    ##  7 concavity            0.300    0.0537 
    ##  8 concave.points       0.147    0.0159 
    ##  9 symmetry             0.242    0.0300 
    ## 10 fractal.dimension    0.0787   0.00619
    ## # ℹ 5,680 more rows
…
